{
    "openapi": "3.0.3",    
        "info": {
          "title": "Simple Todos API", 
          "description": "A simple todos API", 
          "version": "1.0.0", 
          "contact": {
           "name": "John doe",
            "email": "john@web.com", 
            "url": "web.com"
          }
        },
        "servers": [
          {
            "url": "http://localhost:4000", 
            "description": "Local server"
          }],
      "produces": ["application/json"],
      "host": "localhost:4000",
      "basePath": "/Article/schemas/article",
      "paths": {
        "/Articles": {
          "get": {
            "x-swagger-router-controller": "middleware-name1",
            "operationId": "getArticle",
            "tags": [ 
                 "ARTICLE CRUD operations"
              ],
            "description": "Get Article",
            "parameters": [{
              "name": "id", 
              "in": "path", 
              "schema": {
                "$ref": "#/Article/schemas/_id"
              },
              "required": true, 
              "description": "A single Article id" 
            }],
            "responses": { 
              "200": {
              "description": "Article were obtained", 
              "content": {
                "application/json": {
                  "schema": {
                   "$ref": "#/Article/schemas/article"
                  }
                }
              }
            }
           }
          },
  
          "post": {
            "tags": ["ARTICLE CRUD operations"], 
            "description": "Create article", 
            "operationId": "createArticle", 
            "parameters": [], 
            "requestBody": {
             
              "content": {
                
                "application/json": {
                  "schema": {
                    "$ref": "#/Article/schemas/ArticleInput"
                  }
                }
              }
            },
            
            "responses": {
              
              "201": {
                "description": "article created successfully"
              },
              "500": {
                "description": "Server error"
              }
            }
          },
  
          "put": {
            "tags": ["ARTICLE CRUD operations"], 
            "description": "Update todo", 
            "operationId": "updateTodo", 
            "parameters": [
              
              {
                "name": "id", 
                "in": "path", 
                "schema": {
                  "$ref": "#/Article/schemas/article"
                },
                "required": true, 
                "description": "Id of todo to be updated"
              }
            ],
            
            "responses": {
              
              "200": {
                "description": "article updated successfully"
              },
             
              "404": {
                "description": "article not found"
              },
              
              "500": {
                "description": "Server error"
              }
            }
          },
  
          "delete": {
            "tags": ["ARTICLE CRUD operations"], 
            "description": "Deleting an article", 
            "operationId": "deleteTodo", 
            "parameters": [
              
              {
                "name": "id", 
                "in": "path", 
                "schema": {
                  "$ref": "#/Article/schemas/article"
                },
                "required": true, 
                "description": "Deleting a done article"
              }
            ],
            
            "responses": {
              
              "200": {
                "description": "Article deleted successfully"
              },
             
              "404": {
                "description": "Article not found"
              },
              
              "500": {
                "description": "Server error"
              }
            }
          }
  
  
  
        }
      },
      "Article": {
        "schemas": {
          
          "_id": {
            "type": "string", 
            "description": "An id of article", 
            "example": "63ff27f47dd55ec194ebc2fa"
          },
          
          "article": {
            "type": "object", 
            "properties": {
              "_id":{
                "type":"Number",
                "autoIncrement":true 
             },
             "Name":{
                 "type": "String",
                 "required":true,
                 "example":"combo"
             },
             "barcode":{
                 "type": "String",
                 "genereted":true,
                 "example":"sera généré"
             },
             "category_id":{
                 "type": "Number",
                 "required":true,
                 "example":"63ff27f47dd55ec194ebc2fa"
             },
             "activated":{
                 "type": "Boolean",
                 "example":"true or false"
  
                
             },
             "quantity":{
                 "type": "String",
                 "default" : 0,
                 "example":"2000"
             },
             "created_date":{
                 "type": "Date",
                 "autoAdded": true,
                 "example":"03/21/2023"
             },
             "partner_id":{
                 "type":"Number",
                 "required":true,
                 "example":"2433222432134598765"
         
             },
             "description":{
                 "type":"String",
                 "optional":true,
                 "example":"uhdtfvcdeijehdoi"
             },
             "unit_price":{
                 "type": "String",
                 "default" : 0,
                 "example":"303000"
             },
         
             "prodution_date":{
                 "type": "Date",
                 "optional": true,
                 "example":"03/21/2023"
             },
             "expiration_date":{
                 "type": "Date",
                 "optional": true,
                 "example":"03/21/2023"
             }
            }
          },
          
          "ArticleInput": {
            "type": "object", 
            "properties": {
              "_id":{
                "type":"Number",
                "autoIncrement":true 
              },
             "Name":{
                 "type": "String",
                 "required":true,
                 "example":"combo"
                },
             "barcode":{
                 "type": "String",
                 "genereted":true,
                 "example":"sera généré"
             },
             "category_id":{
                 "type": "Number",
                 "required":true,
                 "example":"63ff27f47dd55ec194ebc2fa"
             },
             "activated":{
                 "type": "Boolean",
                 "example":"true or false"
  
                
             },
             "quantity":{
                 "type": "String",
                 "default" : 0,
                 "example":"2000"
             },
             "created_date":{
                 "type": "Date",
                 "autoAdded": true,
                 "example":"03/21/2023"
             },
             "partner_id":{
                 "type":"Number",
                 "required":true,
                 "example":"2433222432134598765"
         
             },
             "description":{
                 "type":"String",
                 "optional":true,
                 "example":"uhdtfvcdeijehdoi"
             },
             "unit_price":{
                 "type": "String",
                 "default" : 0,
                 "example":"303000"
             },
         
             "prodution_date":{
                 "type": "Date",
                 "optional": true,
                 "example":"03/21/2023"
             },
             "expiration_date":{
                 "type": "Date",
                 "optional": true,
                 "example":"03/21/2023"
             }
            }
          },
          
          "Error": {
            "type": "object", 
            "properties": {
              "message": {
                "type": "string", 
                "description": "Error message", 
                "example": "Not found"
              },
              "internal_code": {
                "type": "string", 
                "description": "Error internal code", 
                "example": "Invalid parameters"
              }
            }
          }
        }
      }
  
      
  
  
}